<svg xmlns="http://www.w3.org/2000/svg" viewBox="-106.207 670.793 13.413 13.414">
  <defs>
    <style>
      .cls-1 {
        fill: rgba(0,0,0,0);
        stroke: #a5a5a5;
        stroke-width: 2px;
      }
    </style>
  </defs>
  <path id="Union_215" data-name="Union 215" class="cls-1" d="M-8881-412l-6,6,6-6-6-6,6,6,6-6-6,6,6,6Z" transform="translate(8781.5 1089.5)"/>
</svg>
